hw4/cpu.vcd
$date
	Wed Feb  3 00:29:55 2021
$end
$version
	Icarus Verilog
$end
$timescale
	1ps
$end
$scope module test_cpu $end
$var wire 1 ! i_clk $end
$var wire 1 " i_rst_n $end
$var wire 64 # write_data [63:0] $end
$var wire 64 $ write_addr [63:0] $end
$var wire 64 % read_data [63:0] $end
$var wire 64 & read_addr [63:0] $end
$var wire 1 ' i_valid_inst $end
$var wire 1 ( i_valid_addr $end
$var wire 32 ) i_inst [31:0] $end
$var wire 64 * i_addr [63:0] $end
$var wire 1 + d_valid_data $end
$var wire 1 , MemWrite $end
$var wire 1 - MemRead $end
$var wire 1 . Finish $end
$var reg 1 / clk $end
$var reg 1 0 rst_n $end
$var integer 32 1 cc [31:0] $end
$var integer 32 2 error [31:0] $end
$var integer 32 3 i [31:0] $end
$scope module u_cpu $end
$var wire 1 / i_clk $end
$var wire 1 " i_rst_n $end
$var wire 1 4 zeroornot $end
$var wire 64 5 rs2_selected [63:0] $end
$var wire 64 6 rs2 [63:0] $end
$var wire 64 7 rs1 [63:0] $end
$var wire 1 8 pc_valid $end
$var wire 64 9 pc_2 [63:0] $end
$var wire 64 : pc_1 [63:0] $end
$var wire 64 ; immediate_pc [63:0] $end
$var wire 64 < immediate_extended [63:0] $end
$var wire 1 ' i_i_valid_inst $end
$var wire 32 = i_i_inst [31:0] $end
$var wire 1 + i_d_valid_data $end
$var wire 64 > i_d_data [63:0] $end
$var wire 64 ? current_pc [63:0] $end
$var wire 1 @ RegWrite $end
$var wire 1 A MemtoReg $end
$var wire 1 B MemWrite $end
$var wire 1 C MemRead $end
$var wire 1 D JALornot $end
$var wire 1 E Branch $end
$var wire 64 F ALU_result [63:0] $end
$var wire 2 G ALU_op [1:0] $end
$var wire 4 H ALU_control [3:0] $end
$var wire 1 I ALUSrc $end
$var reg 1 J RegWr_enable $end
$var reg 1 K branchornot $end
$var reg 5 L cs_d [4:0] $end
$var reg 5 M cs_i [4:0] $end
$var reg 64 N d_data [63:0] $end
$var reg 32 O immediate [31:0] $end
$var reg 32 P inst [31:0] $end
$var reg 64 Q next_pc [63:0] $end
$var reg 1 R next_pc_valid $end
$var reg 5 S ns_d [4:0] $end
$var reg 5 T ns_i [4:0] $end
$var reg 1 - o_d_MemRead $end
$var reg 1 , o_d_MemWrite $end
$var reg 64 U o_d_r_addr [63:0] $end
$var reg 64 V o_d_w_addr [63:0] $end
$var reg 64 W o_d_w_data [63:0] $end
$var reg 1 . o_finish $end
$var reg 64 X o_i_addr [63:0] $end
$var reg 1 ( o_i_valid_addr $end
$var reg 5 Y previous_RD [4:0] $end
$var reg 64 Z rd_final [63:0] $end
$var reg 1 [ stop $end
$scope module AC $end
$var wire 3 \ funct3_i [2:0] $end
$var wire 7 ] funct7_i [6:0] $end
$var wire 2 ^ ALUOp_i [1:0] $end
$var reg 4 _ ALUCtrl_o [3:0] $end
$upscope $end
$scope module ALU_RegtoData $end
$var wire 4 ` ALU_control [3:0] $end
$var wire 64 a src2 [63:0] $end
$var wire 64 b src1 [63:0] $end
$var reg 64 c result [63:0] $end
$var reg 33 d tmp_a [32:0] $end
$var reg 33 e tmp_b [32:0] $end
$var reg 1 4 zero $end
$upscope $end
$scope module Adder1 $end
$var wire 64 f src2_i [63:0] $end
$var wire 64 g sum_o [63:0] $end
$var wire 64 h src1_i [63:0] $end
$upscope $end
$scope module Adder2 $end
$var wire 64 i sum_o [63:0] $end
$var wire 64 j src2_i [63:0] $end
$var wire 64 k src1_i [63:0] $end
$upscope $end
$scope module DE $end
$var wire 7 l instr_op_i [6:0] $end
$var reg 1 I ALUSrc_o $end
$var reg 2 m ALU_op_o [1:0] $end
$var reg 1 E Branch_o $end
$var reg 1 D JALornot_o $end
$var reg 1 C MemRead_o $end
$var reg 1 B MemWrite_o $end
$var reg 1 A MemtoReg_o $end
$var reg 1 @ RegWrite_o $end
$upscope $end
$scope module IG $end
$var wire 32 n instr_i [31:0] $end
$var reg 32 o immediate [31:0] $end
$var reg 64 p signed_extend_o [63:0] $end
$upscope $end
$scope module Mux_ALUSrc $end
$var wire 64 q data0_i [63:0] $end
$var wire 1 I select_i $end
$var wire 64 r data1_i [63:0] $end
$var reg 64 s data_o [63:0] $end
$upscope $end
$scope module PC $end
$var wire 1 / clk_i $end
$var wire 1 " nrst_i $end
$var wire 64 t pc_in_i [63:0] $end
$var wire 1 R pc_valid_i $end
$var reg 64 u pc_out_o [63:0] $end
$var reg 1 8 pc_valid_o $end
$upscope $end
$scope module REG $end
$var wire 5 v RDaddr_i [4:0] $end
$var wire 64 w RDdata_i [63:0] $end
$var wire 5 x RSaddr_i [4:0] $end
$var wire 64 y RSdata_o [63:0] $end
$var wire 5 z RTaddr_i [4:0] $end
$var wire 64 { RTdata_o [63:0] $end
$var wire 1 | RegWrite_i $end
$var wire 1 / clk_i $end
$var wire 1 " nrst_i $end
$var wire 64 } pc_addr_i [63:0] $end
$var wire 1 ~ equal_o $end
$var integer 32 !" i [31:0] $end
$upscope $end
$scope module Shifter $end
$var wire 64 "" data_i [63:0] $end
$var reg 64 #" data_o [63:0] $end
$upscope $end
$upscope $end
$scope module u_data_mem $end
$var wire 1 - i_MemRead $end
$var wire 1 , i_MemWrite $end
$var wire 1 ! i_clk $end
$var wire 64 $" i_data [63:0] $end
$var wire 64 %" i_r_addr [63:0] $end
$var wire 1 " i_rst_n $end
$var wire 64 &" i_w_addr [63:0] $end
$var wire 64 '" o_data [63:0] $end
$var wire 1 + o_valid $end
$var reg 64 (" o_data_r [63:0] $end
$var reg 64 )" o_data_w [63:0] $end
$var reg 1 *" o_valid_r $end
$var reg 1 +" o_valid_w $end
$var reg 1 ," temp1_MemRead_r $end
$var reg 1 -" temp1_MemRead_w $end
$var reg 64 ." temp1_r_addr_r [63:0] $end
$var reg 64 /" temp1_r_addr_w [63:0] $end
$var integer 32 0" i [31:0] $end
$upscope $end
$scope module u_inst_mem $end
$var wire 64 1" i_addr [63:0] $end
$var wire 1 ! i_clk $end
$var wire 1 " i_rst_n $end
$var wire 1 ( i_valid $end
$var wire 32 2" o_inst [31:0] $end
$var wire 1 ' o_valid $end
$var reg 32 3" o_inst_r [31:0] $end
$var reg 32 4" o_inst_w [31:0] $end
$var reg 1 5" o_valid_r $end
$var reg 1 6" o_valid_w $end
$var reg 32 7" temp1_r [31:0] $end
$var reg 1 8" temp1_valid_r $end
$var reg 1 9" temp1_valid_w $end
$var reg 32 :" temp1_w [31:0] $end
$var reg 32 ;" temp2_r [31:0] $end
$var reg 1 <" temp2_valid_r $end
$var reg 1 =" temp2_valid_w $end
$var reg 32 >" temp2_w [31:0] $end
$upscope $end
$upscope $end
$enddefinitions $end
#0
$dumpvars
bx >"
x="
x<"
bx ;"
b0 :"
09"
x8"
bx 7"
x6"
x5"
bx 4"
bx 3"
bx 2"
bx 1"
b10000000000 0"
bx /"
bx ."
x-"
x,"
x+"
x*"
bx )"
bx ("
bx '"
bx &"
bx %"
bx $"
bx #"
bx ""
bx !"
x~
b0 }
0|
bx {
bx z
bx y
bx x
bx w
bx v
b0 u
b0 t
bx s
bx r
bx q
bx p
bx o
bx n
bx m
bx l
b0 k
bx j
bx i
b0 h
b100 g
b100 f
bx e
bx d
bx c
bx b
bx a
bx `
bx _
bx ^
bx ]
bx \
x[
bx Z
bx Y
bx X
bx W
bx V
bx U
bx T
bx S
1R
b0 Q
bx P
b0 O
bx N
bx M
bx L
xK
0J
xI
bx H
bx G
bx F
xE
xD
xC
xB
xA
x@
b0 ?
bx >
bx =
bx <
bx ;
b100 :
bx 9
18
bx 7
bx 6
bx 5
x4
bx 3
b0 2
b0 1
10
1/
x.
x-
x,
x+
bx *
bx )
0(
x'
bx &
bx %
bx $
bx #
1"
1!
$end
#2500
b0 )"
0+"
b0 4"
06"
b0 >"
0="
b0 ."
0,"
b0 %
b0 >
b0 '"
b0 ("
0+
0*"
0<"
08"
b0 ;"
b0 7"
b0 )
b0 =
b0 2"
b0 3"
0'
05"
b0 S
b0 T
b0 L
b0 M
08
b10000000000 0"
0"
00
#5000
b1 1
0!
0/
#10000
b100000 !"
b10000000000 0"
1!
1/
#15000
b10 1
0!
0/
#20000
b100000 !"
b10000000000 0"
1!
1/
#25000
b11 1
0!
0/
#30000
b100000 !"
b10000000000 0"
1!
1/
#35000
b100 1
0!
0/
#40000
b100000 !"
b10000000000 0"
1!
1/
#45000
b101 1
0!
0/
#50000
bx )"
x+"
bx ."
x,"
18
b10000000000 0"
1!
1/
1"
10
#55000
b110 1
0!
0/
#60000
bx %
bx >
bx '"
bx ("
x+
x*"
b1 T
b1000010000100011110110011 :"
19"
08
0R
b0 *
b0 X
b0 1"
1(
b10000000000 0"
1!
1/
#65000
b111 1
0!
0/
#70000
b1000010000100011110110011 >"
1="
18"
b1000010000100011110110011 7"
b10 T
b0 :"
09"
b1 M
0(
b10000000000 0"
1!
1/
#75000
b1000 1
0!
0/
#80000
b1000010000100011110110011 4"
16"
b0 >"
0="
1<"
08"
b1000010000100011110110011 ;"
b0 7"
b11 T
b10 M
b10000000000 0"
1!
1/
#85000
b1001 1
0!
0/
#90000
0-"
b111 H
b111 _
b111 `
0,
0-
b0 5
b0 a
b0 s
b10 G
b10 ^
b10 m
0D
0A
0B
0C
0E
1@
0I
b0 4"
06"
0<"
b0 ;"
b1000010000100011110110011 )
b1000010000100011110110011 =
b1000010000100011110110011 2"
b1000010000100011110110011 3"
1'
15"
b0 /"
b0 &
b0 U
b0 %"
b0 $
b0 V
b0 &"
0K
b0 F
b0 c
04
b0 #
b0 W
b0 $"
bx0 ;
bx0 #"
1~
b0 7
b0 b
b0 y
b10000 x
b0 6
b0 r
b0 {
b10000 z
b110011 l
b100 \
b0 ]
bx <
bx j
bx p
bx q
bx ""
b1000010000100011110110011 P
b1000010000100011110110011 n
0.
0[
b1 S
b0 T
b11 M
b10000000000 0"
1!
1/
#95000
b1111 Y
b1111 v
b1010 1
0!
0/
#100000
b0 )"
0+"
b1000 :
b1000 g
b100 ?
b100 h
b100 k
b100 u
b100 }
b0 ."
0,"
b0 )
b0 =
b0 2"
b0 3"
0'
05"
b10 S
b1 L
b0 M
18
1R
b100 Q
b100 t
b10000000000 0"
1!
1/
#105000
b1011 1
0!
0/
#110000
b0 %
b0 >
b0 '"
b0 ("
0+
0*"
b0 S
b1 T
b111101111100100000110011 :"
19"
08
b10 L
0R
b100 *
b100 X
b100 1"
1(
b10000000000 0"
1!
1/
#115000
b1100 1
0!
0/
#120000
b111101111100100000110011 >"
1="
18"
b111101111100100000110011 7"
1|
b10 T
b0 :"
09"
b0 L
b1 M
b0 Z
b0 w
1J
0(
b10000000000 0"
1!
1/
#125000
b1101 1
0!
0/
#130000
b111101111100100000110011 4"
16"
b0 >"
0="
1<"
08"
b111101111100100000110011 ;"
b0 7"
b11 T
0|
b10 M
0J
b10000000000 0"
1!
1/
#135000
b1110 1
0!
0/
#140000
b0 4"
06"
0<"
b0 ;"
b111101111100100000110011 )
b111101111100100000110011 =
b111101111100100000110011 2"
b111101111100100000110011 3"
1'
15"
b0 e
b0 d
b111 H
b111 _
b111 `
b1111 x
b1111 z
b110011 l
b100 \
bx <
bx j
bx p
bx q
bx ""
b111101111100100000110011 P
b111101111100100000110011 n
b1 S
b0 T
b11 M
b10000000000 0"
1!
1/
#145000
b10000 Y
b10000 v
b1111 1
0!
0/
#150000
b1100 :
b1100 g
b1000 ?
b1000 h
b1000 k
b1000 u
b1000 }
b0 )
b0 =
b0 2"
b0 3"
0'
05"
b10 S
18
b1 L
b0 M
1R
b1000 Q
b1000 t
b10000000000 0"
1!
1/
#155000
b10000 1
0!
0/
#160000
b0 S
b1 T
b101111000011100010011 :"
19"
b10 L
08
0R
b1000 *
b1000 X
b1000 1"
1(
b10000000000 0"
1!
1/
#165000
b10001 1
0!
0/
#170000
b101111000011100010011 >"
1="
18"
b101111000011100010011 7"
1|
b10 T
b0 :"
09"
b0 L
b1 M
1J
0(
b10000000000 0"
1!
1/
#175000
b10010 1
0!
0/
#180000
b101111000011100010011 4"
16"
b0 >"
0="
1<"
08"
b101111000011100010011 ;"
b0 7"
b11 T
0|
b10 M
0J
b10000000000 0"
1!
1/
#185000
b10011 1
0!
0/
#190000
b1 /"
b1 &
b1 U
b1 %"
b1 $
b1 V
b1 &"
b1 F
b1 c
b1 d
b1 5
b1 a
b1 s
b11 G
b11 ^
b11 m
1I
b10 ;
b10 #"
b1001 9
b1001 i
b1 o
b0 4"
06"
0<"
b0 ;"
b101111000011100010011 )
b101111000011100010011 =
b101111000011100010011 2"
b101111000011100010011 3"
1'
15"
b10 H
b10 _
b10 `
b1111 x
b1 z
b10011 l
b0 \
b1 <
b1 j
b1 p
b1 q
b1 ""
b101111000011100010011 P
b101111000011100010011 n
b1 S
b0 T
b11 M
b10000000000 0"
1!
1/
#195000
b1110 Y
b1110 v
b10100 1
0!
0/
#200000
b1101 9
b1101 i
b10000 :
b10000 g
b1100 ?
b1100 h
b1100 k
b1100 u
b1100 }
b1 ."
b0 )
b0 =
b0 2"
b0 3"
0'
05"
b10 S
b1 L
b0 M
18
1R
b1100 Q
b1100 t
b10000000000 0"
1!
1/
#205000
b10101 1
0!
0/
#210000
b0 S
b1 T
b10001010000010110010011 :"
19"
08
b10 L
0R
b1100 *
b1100 X
b1100 1"
1(
b10000000000 0"
1!
1/
#215000
b10110 1
0!
0/
#220000
b10001010000010110010011 >"
1="
18"
b10001010000010110010011 7"
1|
b10 T
b0 :"
09"
b0 L
b1 M
b1 Z
b1 w
1J
0(
b10000000000 0"
1!
1/
#225000
b10111 1
0!
0/
#230000
b10001010000010110010011 4"
16"
b0 >"
0="
1<"
08"
b10001010000010110010011 ;"
b0 7"
b11 T
0|
b10 M
0J
b10000000000 0"
1!
1/
#235000
b11000 1
0!
0/
#240000
b100 /"
b100 &
b100 U
b100 %"
b100 $
b100 V
b100 &"
b100 F
b100 c
b100 d
b100 5
b100 a
b100 s
b1000 ;
b1000 #"
b10000 9
b10000 i
b100 <
b100 j
b100 p
b100 q
b100 ""
b100 o
b0 4"
06"
0<"
b0 ;"
b10001010000010110010011 )
b10001010000010110010011 =
b10001010000010110010011 2"
b10001010000010110010011 3"
1'
15"
b1010 x
b100 z
b10011 l
b10001010000010110010011 P
b10001010000010110010011 n
b1 S
b0 T
b11 M
b10000000000 0"
1!
1/
#245000
b1011 Y
b1011 v
b11001 1
0!
0/
#250000
b10100 9
b10100 i
b10100 :
b10100 g
b10000 ?
b10000 h
b10000 k
b10000 u
b10000 }
b0 )
b0 =
b0 2"
b0 3"
0'
05"
b100 ."
b10 S
18
b1 L
b0 M
1R
b10000 Q
b10000 t
b10000000000 0"
1!
1/
#255000
b11010 1
0!
0/
#260000
b0 S
b1 T
b1000011001111000011000010011 :"
19"
b10 L
08
0R
b10000 *
b10000 X
b10000 1"
1(
b10000000000 0"
1!
1/
#265000
b11011 1
0!
0/
#270000
b1000011001111000011000010011 >"
1="
18"
b1000011001111000011000010011 7"
1|
b10 T
b0 :"
09"
b0 L
b1 M
b100 Z
b100 w
1J
0(
b10000000000 0"
1!
1/
#275000
b11100 1
0!
0/
#280000
b1000011001111000011000010011 4"
16"
b0 >"
0="
1<"
08"
b1000011001111000011000010011 ;"
b0 7"
b11 T
0|
b10 M
0J
b10000000000 0"
1!
1/
#285000
b11101 1
0!
0/
#290000
b10000110 /"
b10000110 &
b10000110 U
b10000110 %"
b10000110 $
b10000110 V
b10000110 &"
b10000110 F
b10000110 c
b10000110 d
b10000110 5
b10000110 a
b10000110 s
b100001100 ;
b100001100 #"
b100 ]
b10010110 9
b10010110 i
b10000110 <
b10000110 j
b10000110 p
b10000110 q
b10000110 ""
b10000110 o
b0 4"
06"
0<"
b0 ;"
b1000011001111000011000010011 )
b1000011001111000011000010011 =
b1000011001111000011000010011 2"
b1000011001111000011000010011 3"
1'
15"
b1111 x
b110 z
b10011 l
b1000011001111000011000010011 P
b1000011001111000011000010011 n
b1 S
b0 T
b11 M
b10000000000 0"
1!
1/
#295000
b1100 Y
b1100 v
b11110 1
0!
0/
#300000
b10011010 9
b10011010 i
b11000 :
b11000 g
b10100 ?
b10100 h
b10100 k
b10100 u
b10100 }
b10000110 ."
b0 )
b0 =
b0 2"
b0 3"
0'
05"
b10 S
b1 L
b0 M
18
1R
b10100 Q
b10100 t
b10000000000 0"
1!
1/
#305000
b11111 1
0!
0/
#310000
b0 S
b1 T
b1011000101111000011010010011 :"
19"
08
b10 L
0R
b10100 *
b10100 X
b10100 1"
1(
b10000000000 0"
1!
1/
#315000
b100000 1
0!
0/
#320000
b1011000101111000011010010011 >"
1="
18"
b1011000101111000011010010011 7"
1|
b10 T
b0 :"
09"
b0 L
b1 M
b10000110 Z
b10000110 w
1J
0(
b10000000000 0"
1!
1/
#325000
b100001 1
0!
0/
#330000
b1011000101111000011010010011 4"
16"
b0 >"
0="
1<"
08"
b1011000101111000011010010011 ;"
b0 7"
b11 T
0|
b10 M
0J
b10000000000 0"
1!
1/
#335000
b100010 1
0!
0/
#340000
b10110001 /"
b10110001 &
b10110001 U
b10110001 %"
b10110001 $
b10110001 V
b10110001 &"
b10110001 F
b10110001 c
b10110001 d
b10110001 5
b10110001 a
b10110001 s
b101100010 ;
b101100010 #"
b11000101 9
b11000101 i
b10110001 <
b10110001 j
b10110001 p
b10110001 q
b10110001 ""
b10110001 o
b0 4"
06"
0<"
b0 ;"
b1011000101111000011010010011 )
b1011000101111000011010010011 =
b1011000101111000011010010011 2"
b1011000101111000011010010011 3"
1'
15"
b1111 x
b10001 z
b10011 l
b101 ]
b1011000101111000011010010011 P
b1011000101111000011010010011 n
b1 S
b0 T
b11 M
b10000000000 0"
1!
1/
#345000
b1101 Y
b1101 v
b100011 1
0!
0/
#350000
b11001001 9
b11001001 i
b11100 :
b11100 g
b11000 ?
b11000 h
b11000 k
b11000 u
b11000 }
b0 )
b0 =
b0 2"
b0 3"
0'
05"
b10110001 ."
b10 S
18
b1 L
b0 M
1R
b11000 Q
b11000 t
b10000000000 0"
1!
1/
#355000
b100100 1
0!
0/
#360000
b0 S
b1 T
b1100100001111000111000010011 :"
19"
b10 L
08
0R
b11000 *
b11000 X
b11000 1"
1(
b10000000000 0"
1!
1/
#365000
b100101 1
0!
0/
#370000
b1100100001111000111000010011 >"
1="
18"
b1100100001111000111000010011 7"
1|
b10 T
b0 :"
09"
b0 L
b1 M
b10110001 Z
b10110001 w
1J
0(
b10000000000 0"
1!
1/
#375000
b100110 1
0!
0/
#380000
b1100100001111000111000010011 4"
16"
b0 >"
0="
1<"
08"
b1100100001111000111000010011 ;"
b0 7"
b11 T
0|
b10 M
0J
b10000000000 0"
1!
1/
#385000
b100111 1
0!
0/
#390000
b11001000 /"
b11001000 &
b11001000 U
b11001000 %"
b11001000 $
b11001000 V
b11001000 &"
b11001000 F
b11001000 c
b11001000 d
b11001000 5
b11001000 a
b11001000 s
b110010000 ;
b110010000 #"
b11100000 9
b11100000 i
b11001000 <
b11001000 j
b11001000 p
b11001000 q
b11001000 ""
b11001000 o
b0 4"
06"
0<"
b0 ;"
b1100100001111000111000010011 )
b1100100001111000111000010011 =
b1100100001111000111000010011 2"
b1100100001111000111000010011 3"
1'
15"
b1111 x
b1000 z
b10011 l
b110 ]
b1100100001111000111000010011 P
b1100100001111000111000010011 n
b1 S
b0 T
b11 M
b10000000000 0"
1!
1/
#395000
b11100 Y
b11100 v
b101000 1
0!
0/
#400000
b11100100 9
b11100100 i
b100000 :
b100000 g
b11100 ?
b11100 h
b11100 k
b11100 u
b11100 }
b11001000 ."
b0 )
b0 =
b0 2"
b0 3"
0'
05"
b10 S
b1 L
b0 M
18
1R
b11100 Q
b11100 t
b10000000000 0"
1!
1/
#405000
b101001 1
0!
0/
#410000
b0 S
b1 T
b1000001111000001010110011 :"
19"
08
b10 L
0R
b11100 *
b11100 X
b11100 1"
1(
b10000000000 0"
1!
1/
#415000
b101010 1
0!
0/
#420000
b1000001111000001010110011 >"
1="
18"
b1000001111000001010110011 7"
1|
b10 T
b0 :"
09"
b0 L
b1 M
b11001000 Z
b11001000 w
1J
0(
b10000000000 0"
1!
1/
#425000
b101011 1
0!
0/
#430000
b1000001111000001010110011 4"
16"
b0 >"
0="
1<"
08"
b1000001111000001010110011 ;"
b0 7"
b11 T
0|
b10 M
0J
b10000000000 0"
1!
1/
#435000
b101100 1
0!
0/
#440000
b0 /"
b0 &
b0 U
b0 %"
b0 $
b0 V
b0 &"
b0 F
b0 c
b0 d
b0 5
b0 a
b0 s
b10 G
b10 ^
b10 m
0I
b0 4"
06"
0<"
b0 ;"
b1000001111000001010110011 )
b1000001111000001010110011 =
b1000001111000001010110011 2"
b1000001111000001010110011 3"
1'
15"
b1111 x
b10000 z
b110011 l
b0 ]
b1000001111000001010110011 P
b1000001111000001010110011 n
b1 S
b0 T
b11 M
b10000000000 0"
1!
1/
#445000
b101 Y
b101 v
b101101 1
0!
0/
#450000
b11101000 9
b11101000 i
b100100 :
b100100 g
b100000 ?
b100000 h
b100000 k
b100000 u
b100000 }
b0 )
b0 =
b0 2"
b0 3"
0'
05"
b0 ."
b10 S
18
b1 L
b0 M
1R
b100000 Q
b100000 t
b10000000000 0"
1!
1/
#455000
b101110 1
0!
0/
#460000
b0 S
b1 T
b111100101000001100110011 :"
19"
b10 L
08
0R
b100000 *
b100000 X
b100000 1"
1(
b10000000000 0"
1!
1/
#465000
b101111 1
0!
0/
#470000
b111100101000001100110011 >"
1="
18"
b111100101000001100110011 7"
1|
b10 T
b0 :"
09"
b0 L
b1 M
b0 Z
b0 w
1J
0(
b10000000000 0"
1!
1/
#475000
b110000 1
0!
0/
#480000
b111100101000001100110011 4"
16"
b0 >"
0="
1<"
08"
b111100101000001100110011 ;"
b0 7"
b11 T
0|
b10 M
0J
b10000000000 0"
1!
1/
#485000
b110001 1
0!
0/
#490000
b0 4"
06"
0<"
b0 ;"
b111100101000001100110011 )
b111100101000001100110011 =
b111100101000001100110011 2"
b111100101000001100110011 3"
1'
15"
b101 x
b1111 z
b110011 l
b111100101000001100110011 P
b111100101000001100110011 n
b1 S
b0 T
b11 M
b10000000000 0"
1!
1/
#495000
b110 Y
b110 v
b110010 1
0!
0/
#500000
b11101100 9
b11101100 i
b101000 :
b101000 g
b100100 ?
b100100 h
b100100 k
b100100 u
b100100 }
b0 )
b0 =
b0 2"
b0 3"
0'
05"
b10 S
b1 L
b0 M
18
1R
b100100 Q
b100100 t
b10000000000 0"
1!
1/
#505000
b110011 1
0!
0/
#510000
b0 S
b1 T
b111110011101100000011000010011 :"
19"
08
b10 L
0R
b100100 *
b100100 X
b100100 1"
1(
b10000000000 0"
1!
1/
#515000
b110100 1
0!
0/
#520000
b111110011101100000011000010011 >"
1="
18"
b111110011101100000011000010011 7"
1|
b10 T
b0 :"
09"
b0 L
b1 M
1J
0(
b10000000000 0"
1!
1/
#525000
b110101 1
0!
0/
#530000
b111110011101100000011000010011 4"
16"
b0 >"
0="
1<"
08"
b111110011101100000011000010011 ;"
b0 7"
b11 T
0|
b10 M
0J
b10000000000 0"
1!
1/
#535000
b110110 1
0!
0/
#540000
b10001101101 /"
b10001101101 &
b10001101101 U
b10001101101 %"
b10001101101 $
b10001101101 V
b10001101101 &"
b1111100111 5
b1111100111 a
b1111100111 s
b10001101101 F
b10001101101 c
b10001101101 d
b11 G
b11 ^
b11 m
1I
b11111001110 ;
b11111001110 #"
0~
b10000110 7
b10000110 b
b10000110 y
b11111 ]
b10000001011 9
b10000001011 i
b1111100111 <
b1111100111 j
b1111100111 p
b1111100111 q
b1111100111 ""
b1111100111 o
b0 4"
06"
0<"
b0 ;"
b111110011101100000011000010011 )
b111110011101100000011000010011 =
b111110011101100000011000010011 2"
b111110011101100000011000010011 3"
1'
15"
b1100 x
b111 z
b10011 l
b111110011101100000011000010011 P
b111110011101100000011000010011 n
b1 S
b0 T
b11 M
b10000000000 0"
1!
1/
#545000
b1100 Y
b1100 v
b110111 1
0!
0/
#550000
b10000001111 9
b10000001111 i
b101100 :
b101100 g
b101000 ?
b101000 h
b101000 k
b101000 u
b101000 }
b0 )
b0 =
b0 2"
b0 3"
0'
05"
b10001101101 ."
b10 S
18
b1 L
b0 M
1R
b101000 Q
b101000 t
b10000000000 0"
1!
1/
#555000
b111000 1
0!
0/
#560000
b0 S
b1 T
b111100110000001110110011 :"
19"
b10 L
08
0R
b101000 *
b101000 X
b101000 1"
1(
b10000000000 0"
1!
1/
#565000
b111001 1
0!
0/
#570000
b111100110000001110110011 >"
1="
18"
b111100110000001110110011 7"
1|
b10 T
b0 :"
09"
b0 L
b1 M
b10001101101 Z
b10001101101 w
1J
0(
b10000000000 0"
1!
1/
#575000
b111010 1
0!
0/
#580000
b100001010100 /"
b100001010100 &
b100001010100 U
b100001010100 %"
b100001010100 $
b100001010100 V
b100001010100 &"
b100001010100 F
b100001010100 c
b100001010100 d
b111100110000001110110011 4"
16"
b0 >"
0="
b10001101101 7
b10001101101 b
b10001101101 y
1<"
08"
b111100110000001110110011 ;"
b0 7"
b11 T
0|
b10 M
0J
b10000000000 0"
1!
1/
#585000
b111011 1
0!
0/
#590000
b0 5
b0 a
b0 s
b10 G
b10 ^
b10 m
0I
b0 4"
06"
0<"
b0 ;"
b111100110000001110110011 )
b111100110000001110110011 =
b111100110000001110110011 2"
b111100110000001110110011 3"
1'
15"
b100001010100 ."
b0 /"
b0 &
b0 U
b0 %"
b0 $
b0 V
b0 &"
b0 F
b0 c
b0 d
1~
b0 7
b0 b
b0 y
b110 x
b1111 z
b110011 l
b0 ]
b111100110000001110110011 P
b111100110000001110110011 n
b1 S
b0 T
b11 M
b10000000000 0"
1!
1/
#595000
b111 Y
b111 v
b111100 1
0!
0/
#600000
b10000010011 9
b10000010011 i
b110000 :
b110000 g
b101100 ?
b101100 h
b101100 k
b101100 u
b101100 }
b0 ."
b0 )
b0 =
b0 2"
b0 3"
0'
05"
b10 S
b1 L
b0 M
18
1R
b101100 Q
b101100 t
b10000000000 0"
1!
1/
#605000
b111101 1
0!
0/
#610000
b0 S
b1 T
b110111100001101000011010010011 :"
19"
08
b10 L
0R
b101100 *
b101100 X
b101100 1"
1(
b10000000000 0"
1!
1/
#615000
b111110 1
0!
0/
#620000
b110111100001101000011010010011 >"
1="
18"
b110111100001101000011010010011 7"
1|
b10 T
b0 :"
09"
b0 L
b1 M
b0 Z
b0 w
1J
0(
b10000000000 0"
1!
1/
#625000
b111111 1
0!
0/
#630000
b110111100001101000011010010011 4"
16"
b0 >"
0="
1<"
08"
b110111100001101000011010010011 ;"
b0 7"
b11 T
0|
b10 M
0J
b10000000000 0"
1!
1/
#635000
b1000000 1
0!
0/
#640000
b10000101001 /"
b10000101001 &
b10000101001 U
b10000101001 %"
b10000101001 $
b10000101001 V
b10000101001 &"
b1101111000 5
b1101111000 a
b1101111000 s
b10000101001 F
b10000101001 c
b10000101001 d
b11 G
b11 ^
b11 m
1I
b11011110000 ;
b11011110000 #"
0~
b10110001 7
b10110001 b
b10110001 y
b11011 ]
b1110100100 9
b1110100100 i
b1101111000 <
b1101111000 j
b1101111000 p
b1101111000 q
b1101111000 ""
b1101111000 o
b0 4"
06"
0<"
b0 ;"
b110111100001101000011010010011 )
b110111100001101000011010010011 =
b110111100001101000011010010011 2"
b110111100001101000011010010011 3"
1'
15"
b1101 x
b11000 z
b10011 l
b110111100001101000011010010011 P
b110111100001101000011010010011 n
b1 S
b0 T
b11 M
b10000000000 0"
1!
1/
#645000
b1101 Y
b1101 v
b1000001 1
0!
0/
#650000
b1110101000 9
b1110101000 i
b110100 :
b110100 g
b110000 ?
b110000 h
b110000 k
b110000 u
b110000 }
b0 )
b0 =
b0 2"
b0 3"
0'
05"
b10000101001 ."
b10 S
18
b1 L
b0 M
1R
b110000 Q
b110000 t
b10000000000 0"
1!
1/
#655000
b1000010 1
0!
0/
#660000
b0 S
b1 T
b1010011111010000011 :"
19"
b10 L
08
0R
b110000 *
b110000 X
b110000 1"
1(
b10000000000 0"
1!
1/
#665000
b1000011 1
0!
0/
#670000
b1010011111010000011 >"
1="
18"
b1010011111010000011 7"
1|
b10 T
b0 :"
09"
b0 L
b1 M
b10000101001 Z
b10000101001 w
1J
0(
b10000000000 0"
1!
1/
#675000
b1000100 1
0!
0/
#680000
b11110100001 /"
b11110100001 &
b11110100001 U
b11110100001 %"
b11110100001 $
b11110100001 V
b11110100001 &"
b11110100001 F
b11110100001 c
b11110100001 d
b1010011111010000011 4"
16"
b0 >"
0="
b10000101001 7
b10000101001 b
b10000101001 y
1<"
08"
b1010011111010000011 ;"
b0 7"
b11 T
0|
b10 M
0J
b10000000000 0"
1!
1/
#685000
b1000101 1
0!
0/
#690000
1-"
1-
b0 G
b0 ^
b0 m
1A
1C
b0 5
b0 a
b0 s
b0 ;
b0 #"
b11 \
b110000 9
b110000 i
b0 <
b0 j
b0 p
b0 q
b0 ""
b0 o
b0 4"
06"
0<"
b0 ;"
b1010011111010000011 )
b1010011111010000011 =
b1010011111010000011 2"
b1010011111010000011 3"
1'
15"
b11110100001 ."
b0 /"
b0 &
b0 U
b0 %"
b0 $
b0 V
b0 &"
b0 F
b0 c
b0 d
1~
b0 7
b0 b
b0 y
b1010 x
b0 z
b11 l
b0 ]
b1010011111010000011 P
b1010011111010000011 n
b1 S
b0 T
b11 M
b10000000000 0"
1!
1/
#695000
b11101 Y
b11101 v
b1000110 1
0!
0/
#700000
1+"
b110100 9
b110100 i
b111000 :
b111000 g
b110100 ?
b110100 h
b110100 k
b110100 u
b110100 }
b0 ."
1,"
b0 )
b0 =
b0 2"
b0 3"
0'
05"
b10 S
b1 L
b0 M
18
1R
b110100 Q
b110100 t
b10000000000 0"
1!
1/
