hw3/CPU/cpu.vcd
$date
	Sun Nov 29 18:52:55 2020
$end
$version
	Icarus Verilog
$end
$timescale
	1ps
$end
$scope module test_cpu $end
$var wire 1 ! i_clk $end
$var wire 1 " i_rst_n $end
$var wire 64 # write_data [63:0] $end
$var wire 64 $ write_addr [63:0] $end
$var wire 64 % read_data [63:0] $end
$var wire 1 & i_valid_inst $end
$var wire 1 ' i_valid_addr $end
$var wire 32 ( i_inst [31:0] $end
$var wire 64 ) i_addr [63:0] $end
$var wire 1 * d_valid_data $end
$var wire 1 + MemWrite $end
$var wire 1 , MemRead $end
$var wire 1 - Finish $end
$var reg 1 . clk $end
$var reg 1 / rst_n $end
$var integer 32 0 error [31:0] $end
$var integer 32 1 i [31:0] $end
$scope module u_cpu $end
$var wire 1 . i_clk $end
$var wire 1 " i_rst_n $end
$var wire 1 2 zeroornot $end
$var wire 64 3 rs2_selected [63:0] $end
$var wire 64 4 rs2 [63:0] $end
$var wire 64 5 rs1 [63:0] $end
$var wire 1 6 pc_valid $end
$var wire 64 7 pc_2 [63:0] $end
$var wire 64 8 pc_1 [63:0] $end
$var wire 64 9 immediate_pc [63:0] $end
$var wire 64 : immediate_extended [63:0] $end
$var wire 1 & i_i_valid_inst $end
$var wire 32 ; i_i_inst [31:0] $end
$var wire 1 * i_d_valid_data $end
$var wire 64 < i_d_data [63:0] $end
$var wire 64 = current_pc [63:0] $end
$var wire 1 > RegWrite $end
$var wire 1 ? MemtoReg $end
$var wire 1 @ MemWrite $end
$var wire 1 A MemRead $end
$var wire 1 B JALornot $end
$var wire 1 C Branch $end
$var wire 64 D ALU_result [63:0] $end
$var wire 2 E ALU_op [1:0] $end
$var wire 4 F ALU_control [3:0] $end
$var wire 1 G ALUSrc $end
$var reg 1 H branchornot $end
$var reg 5 I cs_i [4:0] $end
$var reg 64 J d_data [63:0] $end
$var reg 32 K immediate [31:0] $end
$var reg 32 L inst [31:0] $end
$var reg 64 M next_pc [63:0] $end
$var reg 1 N next_pc_valid $end
$var reg 5 O ns_i [4:0] $end
$var reg 1 , o_d_MemRead $end
$var reg 1 + o_d_MemWrite $end
$var reg 64 P o_d_addr [63:0] $end
$var reg 64 Q o_d_data [63:0] $end
$var reg 1 - o_finish $end
$var reg 64 R o_i_addr [63:0] $end
$var reg 1 ' o_i_valid_addr $end
$var reg 5 S previous_RD [4:0] $end
$var reg 64 T rd_final [63:0] $end
$var reg 1 U stop $end
$scope module AC $end
$var wire 3 V funct3_i [2:0] $end
$var wire 7 W funct7_i [6:0] $end
$var wire 2 X ALUOp_i [1:0] $end
$var reg 4 Y ALUCtrl_o [3:0] $end
$upscope $end
$scope module ALU_RegtoData $end
$var wire 4 Z ALU_control [3:0] $end
$var wire 64 [ src2 [63:0] $end
$var wire 64 \ src1 [63:0] $end
$var reg 64 ] result [63:0] $end
$var reg 1 2 zero $end
$upscope $end
$scope module Adder1 $end
$var wire 64 ^ src2_i [63:0] $end
$var wire 64 _ sum_o [63:0] $end
$var wire 64 ` src1_i [63:0] $end
$upscope $end
$scope module Adder2 $end
$var wire 64 a sum_o [63:0] $end
$var wire 64 b src2_i [63:0] $end
$var wire 64 c src1_i [63:0] $end
$upscope $end
$scope module DE $end
$var wire 7 d instr_op_i [6:0] $end
$var reg 1 G ALUSrc_o $end
$var reg 2 e ALU_op_o [1:0] $end
$var reg 1 C Branch_o $end
$var reg 1 B JALornot_o $end
$var reg 1 A MemRead_o $end
$var reg 1 @ MemWrite_o $end
$var reg 1 ? MemtoReg_o $end
$var reg 1 > RegWrite_o $end
$upscope $end
$scope module IG $end
$var wire 32 f instr_i [31:0] $end
$var reg 64 g signed_extend_o [63:0] $end
$upscope $end
$scope module Mux_ALUSrc $end
$var wire 64 h data0_i [63:0] $end
$var wire 1 G select_i $end
$var wire 64 i data1_i [63:0] $end
$var reg 64 j data_o [63:0] $end
$upscope $end
$scope module PC $end
$var wire 1 . clk_i $end
$var wire 1 " nrst_i $end
$var wire 64 k pc_in_i [63:0] $end
$var wire 1 N pc_valid_i $end
$var reg 64 l pc_out_o [63:0] $end
$var reg 1 6 pc_valid_o $end
$upscope $end
$scope module REG $end
$var wire 5 m RDaddr_i [4:0] $end
$var wire 64 n RDdata_i [63:0] $end
$var wire 5 o RSaddr_i [4:0] $end
$var wire 64 p RSdata_o [63:0] $end
$var wire 5 q RTaddr_i [4:0] $end
$var wire 64 r RTdata_o [63:0] $end
$var wire 1 > RegWrite_i $end
$var wire 1 . clk_i $end
$var wire 1 " nrst_i $end
$var wire 64 s pc_addr_i [63:0] $end
$var integer 32 t i [31:0] $end
$upscope $end
$scope module Shifter $end
$var wire 64 u data_i [63:0] $end
$var reg 64 v data_o [63:0] $end
$upscope $end
$upscope $end
$scope module u_data_mem $end
$var wire 1 , i_MemRead $end
$var wire 1 + i_MemWrite $end
$var wire 64 w i_addr [63:0] $end
$var wire 1 ! i_clk $end
$var wire 64 x i_data [63:0] $end
$var wire 1 " i_rst_n $end
$var wire 1 y i_valid $end
$var wire 64 z o_data [63:0] $end
$var wire 1 * o_valid $end
$var reg 4 { cs [3:0] $end
$var reg 4 | ns [3:0] $end
$var reg 64 } o_data_r [63:0] $end
$var reg 64 ~ o_data_w [63:0] $end
$var reg 1 !" o_valid_r $end
$var reg 1 "" o_valid_w $end
$var reg 1 #" temp_MemRead $end
$var reg 1 $" temp_MemRead_w $end
$var reg 1 %" temp_MemWrite $end
$var reg 1 &" temp_MemWrite_w $end
$var reg 64 '" temp_addr [63:0] $end
$var reg 64 (" temp_addr_w [63:0] $end
$var reg 64 )" temp_data [63:0] $end
$var reg 64 *" temp_data_w [63:0] $end
$var integer 32 +" i [31:0] $end
$upscope $end
$scope module u_inst_mem $end
$var wire 64 ," i_addr [63:0] $end
$var wire 1 ! i_clk $end
$var wire 1 " i_rst_n $end
$var wire 1 ' i_valid $end
$var wire 32 -" o_inst [31:0] $end
$var wire 1 & o_valid $end
$var reg 4 ." cs [3:0] $end
$var reg 4 /" ns [3:0] $end
$var reg 32 0" o_inst_r [31:0] $end
$var reg 32 1" o_inst_w [31:0] $end
$var reg 1 2" o_valid_r $end
$var reg 1 3" o_valid_w $end
$var reg 64 4" temp_addr_r [63:0] $end
$var reg 64 5" temp_addr_w [63:0] $end
$upscope $end
$upscope $end
$enddefinitions $end
#0
$dumpvars
bx 5"
bx 4"
03"
02"
b0 1"
b0 0"
bx /"
bx ."
b0 -"
bx ,"
b10000000000 +"
bx *"
bx )"
bx ("
bx '"
x&"
x%"
x$"
x#"
0""
x!"
b0 ~
bx }
bx |
bx {
bx z
0y
bx x
bx w
b0 v
b0 u
bx t
b0 s
bx r
bx q
bx p
bx o
bx n
bx m
b0 l
b0 k
bx j
bx i
b0 h
b0 g
b0 f
bx e
bx d
b0 c
b0 b
b0 a
b0 `
b100 _
b100 ^
bx ]
bx \
bx [
bx Z
bx Y
bx X
bx W
bx V
xU
bx T
bx S
bx R
bx Q
bx P
bx O
1N
b0 M
bx L
b0 K
bx J
bx I
0H
0G
bx F
bx E
bx D
0C
0B
0A
0@
0?
0>
b0 =
bx <
b0 ;
b0 :
b0 9
b100 8
b0 7
16
bx 5
bx 4
bx 3
x2
bx 1
b0 0
1/
1.
x-
0,
0+
x*
bx )
b0 (
0'
0&
bx %
bx $
bx #
1"
1!
$end
#2500
0&"
0$"
b0 *"
b0 ("
b0 |
b0 5"
b0 /"
0%"
0#"
b0 )"
b0 '"
b0 {
b0 %
b0 <
b0 z
b0 }
0*
0!"
b0 4"
b0 ."
b0 O
b10000000000 +"
b0 I
0"
0/
#5000
0!
0.
#10000
b100000 t
06
b10000000000 +"
1!
1.
#15000
0!
0.
#20000
b100000 t
b10000000000 +"
1!
1.
#25000
0!
0.
#30000
b100000 t
b10000000000 +"
1!
1.
#35000
0!
0.
#40000
b100000 t
b10000000000 +"
1!
1.
#45000
0!
0.
#50000
02
b0 #
b0 Q
b0 x
b0 3
b0 [
b0 j
b0 5
b0 \
b0 p
b0 o
b0 4
b0 i
b0 r
b0 q
b0 d
b0 V
b0 W
b0 L
b1 O
b1 /"
0N
b0 )
b0 R
b0 ,"
1'
16
b10000000000 +"
1!
1.
1"
1/
#55000
b0 S
b0 m
0!
0.
#60000
b10 /"
b1 ."
b10 O
06
b1 I
b10000000000 +"
1!
1.
#65000
0!
0.
#70000
b11 /"
b10 ."
b11 O
0'
b10 I
b10000000000 +"
1!
1.
#75000
0!
0.
#80000
b100 /"
b11 ."
b100 O
b11 I
b10000000000 +"
1!
1.
#85000
0!
0.
#90000
b101 /"
b100 ."
b101 O
b100 I
b10000000000 +"
1!
1.
#95000
0!
0.
#100000
b0 /"
b111101100000000001010010011 1"
13"
b101 ."
b110 O
b101 I
b10000000000 +"
1!
1.
#105000
0!
0.
#110000
b11110110 9
b11110110 v
b1111011 7
b1111011 a
b1111011 :
b1111011 b
b1111011 g
b1111011 h
b1111011 u
b0 1"
03"
b1111011 K
b1111011 f
b0 ."
b111101100000000001010010011 (
b111101100000000001010010011 ;
b111101100000000001010010011 -"
b111101100000000001010010011 0"
1&
12"
b111 O
b110 I
b10000000000 +"
1!
1.
#115000
0!
0.
#120000
b0 (
b0 ;
b0 -"
b0 0"
0&
02"
b1111011 $
b1111011 P
b1111011 w
b1111011 D
b1111011 ]
b10 F
b10 Y
b10 Z
b1111011 3
b1111011 [
b1111011 j
b11 E
b11 X
b11 e
1>
1G
b11011 q
b10011 d
b11 W
b1000 O
b111101100000000001010010011 L
0-
0U
b111 I
b10000000000 +"
1!
1.
#125000
b101 S
b101 m
0!
0.
#130000
b1001 O
b1000 I
b10000000000 +"
1!
1.
#135000
0!
0.
#140000
b1010 O
b1001 I
b10000000000 +"
1!
1.
#145000
0!
0.
#150000
b1011 O
b1010 I
b10000000000 +"
1!
1.
#155000
0!
0.
#160000
b1100 O
b1011 I
b10000000000 +"
1!
1.
#165000
0!
0.
#170000
b1101 O
b1100 I
b10000000000 +"
1!
1.
#175000
0!
0.
#180000
b1110 O
b1101 I
b10000000000 +"
1!
1.
#185000
0!
0.
#190000
b1111 O
b1110 I
b10000000000 +"
1!
1.
#195000
0!
0.
#200000
b10000 O
b1111 I
b10000000000 +"
1!
1.
#205000
0!
0.
#210000
b0 O
b1111011 T
b1111011 n
1N
b100 M
b100 k
b10000 I
b10000000000 +"
1!
1.
#215000
0!
0.
#220000
b1111111 7
b1111111 a
b1000 8
b1000 _
b100 =
b100 `
b100 c
b100 l
b100 s
16
b0 I
b10000000000 +"
1!
1.
#225000
0!
0.
#230000
b0 $
b0 P
b0 w
b0 D
b0 ]
b0 3
b0 [
b0 j
0>
0G
b0 q
b0 d
b0 W
b0 L
b1 O
b1 /"
b100 5"
0N
b100 )
b100 R
b100 ,"
1'
b10000000000 +"
1!
1.
#235000
b0 S
b0 m
0!
0.
#240000
b10 /"
b100 4"
b1 ."
b10 O
06
b1 I
b10000000000 +"
1!
1.
#245000
0!
0.
#250000
b11 /"
b10 ."
b11 O
0'
b10 I
b10000000000 +"
1!
1.
#255000
0!
0.
#260000
b100 /"
b11 ."
b100 O
b11 I
b10000000000 +"
1!
1.
#265000
0!
0.
#270000
b101 /"
b100 ."
b101 O
b100 I
b10000000000 +"
1!
1.
#275000
0!
0.
#280000
b0 /"
b11100100000000000001100010011 1"
13"
b101 ."
b110 O
b101 I
b10000000000 +"
1!
1.
#285000
0!
0.
#290000
b1110010000 9
b1110010000 v
b111001100 7
b111001100 a
b111001000 :
b111001000 b
b111001000 g
b111001000 h
b111001000 u
b0 1"
03"
b111001000 K
b111001000 f
b0 ."
b11100100000000000001100010011 (
b11100100000000000001100010011 ;
b11100100000000000001100010011 -"
b11100100000000000001100010011 0"
1&
12"
b111 O
b110 I
b10000000000 +"
1!
1.
#295000
0!
0.
#300000
b0 (
b0 ;
b0 -"
b0 0"
0&
02"
b111001000 $
b111001000 P
b111001000 w
b111001000 D
b111001000 ]
b111001000 3
b111001000 [
b111001000 j
1>
1G
b1000 q
b10011 d
b1110 W
b1000 O
b11100100000000000001100010011 L
b111 I
b10000000000 +"
1!
1.
#305000
b110 S
b110 m
0!
0.
#310000
b1001 O
b1000 I
b10000000000 +"
1!
1.
#315000
0!
0.
#320000
b1010 O
b1001 I
b10000000000 +"
1!
1.
#325000
0!
0.
#330000
b1011 O
b1010 I
b10000000000 +"
1!
1.
#335000
0!
0.
#340000
b1100 O
b1011 I
b10000000000 +"
1!
1.
#345000
0!
0.
#350000
b1101 O
b1100 I
b10000000000 +"
1!
1.
#355000
0!
0.
#360000
b1110 O
b1101 I
b10000000000 +"
1!
1.
#365000
0!
0.
#370000
b1111 O
b1110 I
b10000000000 +"
1!
1.
#375000
0!
0.
#380000
b10000 O
b1111 I
b10000000000 +"
1!
1.
#385000
0!
0.
#390000
b0 O
b111001000 T
b111001000 n
1N
b1000 M
b1000 k
b10000 I
b10000000000 +"
1!
1.
#395000
0!
0.
#400000
b111010000 7
b111010000 a
b1100 8
b1100 _
b1000 =
b1000 `
b1000 c
b1000 l
b1000 s
16
b0 I
b10000000000 +"
1!
1.
#405000
0!
0.
#410000
b0 $
b0 P
b0 w
b0 D
b0 ]
b0 3
b0 [
b0 j
0>
0G
b0 q
b0 d
b0 W
b0 L
b1 O
b1 /"
b1000 5"
0N
b1000 )
b1000 R
b1000 ,"
1'
b10000000000 +"
1!
1.
#415000
b0 S
b0 m
0!
0.
#420000
b10 /"
b1000 4"
b1 ."
b10 O
06
b1 I
b10000000000 +"
1!
1.
#425000
0!
0.
#430000
b11 /"
b10 ."
b11 O
0'
b10 I
b10000000000 +"
1!
1.
#435000
0!
0.
#440000
b100 /"
b11 ."
b100 O
b11 I
b10000000000 +"
1!
1.
#445000
0!
0.
#450000
b101 /"
b100 ."
b101 O
b100 I
b10000000000 +"
1!
1.
#455000
0!
0.
#460000
b0 /"
b111101100000000001110010011 1"
13"
b101 ."
b110 O
b101 I
b10000000000 +"
1!
1.
#465000
0!
0.
#470000
b11110110 9
b11110110 v
b10000011 7
b10000011 a
b1111011 :
b1111011 b
b1111011 g
b1111011 h
b1111011 u
b0 1"
03"
b1111011 K
b1111011 f
b0 ."
b111101100000000001110010011 (
b111101100000000001110010011 ;
b111101100000000001110010011 -"
b111101100000000001110010011 0"
1&
12"
b111 O
b110 I
b10000000000 +"
1!
1.
#475000
0!
0.
#480000
b0 (
b0 ;
b0 -"
b0 0"
0&
02"
b1111011 $
b1111011 P
b1111011 w
b1111011 D
b1111011 ]
b1111011 3
b1111011 [
b1111011 j
1>
1G
b11011 q
b10011 d
b11 W
b1000 O
b111101100000000001110010011 L
b111 I
b10000000000 +"
1!
1.
#485000
b111 S
b111 m
0!
0.
#490000
b1001 O
b1000 I
b10000000000 +"
1!
1.
#495000
0!
0.
#500000
b1010 O
b1001 I
b10000000000 +"
1!
1.
#505000
0!
0.
#510000
b1011 O
b1010 I
b10000000000 +"
1!
1.
#515000
0!
0.
#520000
b1100 O
b1011 I
b10000000000 +"
1!
1.
#525000
0!
0.
#530000
b1101 O
b1100 I
b10000000000 +"
1!
1.
#535000
0!
0.
#540000
b1110 O
b1101 I
b10000000000 +"
1!
1.
#545000
0!
0.
#550000
b1111 O
b1110 I
b10000000000 +"
1!
1.
#555000
0!
0.
#560000
b10000 O
b1111 I
b10000000000 +"
1!
1.
#565000
0!
0.
#570000
b0 O
b1111011 T
b1111011 n
1N
b1100 M
b1100 k
b10000 I
b10000000000 +"
1!
1.
#575000
0!
0.
#580000
b10000111 7
b10000111 a
b10000 8
b10000 _
b1100 =
b1100 `
b1100 c
b1100 l
b1100 s
16
b0 I
b10000000000 +"
1!
1.
#585000
0!
0.
#590000
b0 $
b0 P
b0 w
b0 D
b0 ]
b0 3
b0 [
b0 j
0>
0G
b0 q
b0 d
b0 W
b0 L
b1 O
b1 /"
b1100 5"
0N
b1100 )
b1100 R
b1100 ,"
1'
b10000000000 +"
1!
1.
#595000
b0 S
b0 m
0!
0.
#600000
b10 /"
b1100 4"
b1 ."
b10 O
06
b1 I
b10000000000 +"
1!
1.
#605000
0!
0.
#610000
b11 /"
b10 ."
b11 O
0'
b10 I
b10000000000 +"
1!
1.
#615000
0!
0.
#620000
b100 /"
b11 ."
b100 O
b11 I
b10000000000 +"
1!
1.
#625000
0!
0.
#630000
b101 /"
b100 ."
b101 O
b100 I
b10000000000 +"
1!
1.
#635000
0!
0.
#640000
b0 /"
b11000101001011001100011 1"
13"
b101 ."
b110 O
b101 I
b10000000000 +"
1!
1.
#645000
0!
0.
#650000
b11000 9
b11000 v
b11000 7
b11000 a
b1100 :
b1100 b
b1100 g
b1100 h
b1100 u
b0 1"
03"
b1100 K
b1100 f
b0 ."
b11000101001011001100011 (
b11000101001011001100011 ;
b11000101001011001100011 -"
b11000101001011001100011 0"
1&
12"
b111 O
b110 I
b10000000000 +"
1!
1.
#655000
0!
0.
#660000
b0 (
b0 ;
b0 -"
b0 0"
0&
02"
1H
12
b111001000 #
b111001000 Q
b111001000 x
b111001000 3
b111001000 [
b111001000 j
b1 E
b1 X
b1 e
1C
b1001 F
b1001 Y
b1001 Z
b1111011 5
b1111011 \
b1111011 p
b101 o
b111001000 4
b111001000 i
b111001000 r
b110 q
b1100011 d
b1 V
b1000 O
b11000101001011001100011 L
b111 I
b10000000000 +"
1!
1.
#665000
b1100 S
b1100 m
0!
0.
#670000
b1001 O
b1000 I
b10000000000 +"
1!
1.
#675000
0!
0.
#680000
b1010 O
b1001 I
b10000000000 +"
1!
1.
#685000
0!
0.
#690000
b1011 O
b1010 I
b10000000000 +"
1!
1.
#695000
0!
0.
#700000
b1100 O
b1011 I
b10000000000 +"
1!
1.
#705000
0!
0.
#710000
b1101 O
b1100 I
b10000000000 +"
1!
1.
#715000
0!
0.
#720000
b1110 O
b1101 I
b10000000000 +"
1!
1.
#725000
0!
0.
#730000
b1111 O
b1110 I
b10000000000 +"
1!
1.
#735000
0!
0.
#740000
b10000 O
b1111 I
b10000000000 +"
1!
1.
#745000
0!
0.
#750000
b0 O
b0 T
b0 n
1N
b11000 M
b11000 k
b10000 I
b10000000000 +"
1!
1.
#755000
0!
0.
#760000
b100100 7
b100100 a
b11100 8
b11100 _
b11000 =
b11000 `
b11000 c
b11000 l
b11000 s
16
b0 I
b10000000000 +"
1!
1.
#765000
0!
0.
#770000
0H
12
b0 #
b0 Q
b0 x
b0 3
b0 [
b0 j
0C
b110 F
b110 Y
b110 Z
b0 5
b0 \
b0 p
b0 o
b0 4
b0 i
b0 r
b0 q
b0 d
b0 V
b0 L
b1 O
b1 /"
b11000 5"
0N
b11000 )
b11000 R
b11000 ,"
1'
b10000000000 +"
1!
1.
#775000
b0 S
b0 m
0!
0.
#780000
b10 /"
b11000 4"
b1 ."
b10 O
06
b1 I
b10000000000 +"
1!
1.
#785000
0!
0.
#790000
b11 /"
b10 ."
b11 O
0'
b10 I
b10000000000 +"
1!
1.
#795000
0!
0.
#800000
b100 /"
b11 ."
b100 O
b11 I
b10000000000 +"
1!
1.
#805000
0!
0.
#810000
b101 /"
b100 ."
b101 O
b100 I
b10000000000 +"
1!
1.
#815000
0!
0.
#820000
b0 /"
b10010101010011000000100011 1"
13"
b101 ."
b110 O
b101 I
b10000000000 +"
1!
1.
#825000
0!
0.
#830000
b1000000 9
b1000000 v
b111000 7
b111000 a
b100000 :
b100000 b
b100000 g
b100000 h
b100000 u
b0 1"
03"
b100000 K
b100000 f
b0 ."
b10010101010011000000100011 (
b10010101010011000000100011 ;
b10010101010011000000100011 -"
b10010101010011000000100011 0"
1&
12"
b111 O
b110 I
b10000000000 +"
1!
1.
#835000
0!
0.
#840000
b0 (
b0 ;
b0 -"
b0 0"
0&
02"
b1 |
1&"
b1111011 *"
b100000 ("
b100000 $
b100000 P
b100000 w
1y
b100000 D
b100000 ]
02
b10 F
b10 Y
b10 Z
1+
b1111011 #
b1111011 Q
b1111011 x
b100000 3
b100000 [
b100000 j
b0 E
b0 X
b0 e
1@
1G
b1010 o
b1111011 4
b1111011 i
b1111011 r
b101 q
b100011 d
b11 V
b1 W
b1000 O
b10010101010011000000100011 L
b111 I
b10000000000 +"
1!
1.
#845000
0!
0.
#850000
b10 |
1%"
b1111011 )"
b100000 '"
b1 {
b1001 O
b1000 I
b10000000000 +"
1!
1.
#855000
0!
0.
#860000
b11 |
b10 {
b1010 O
b1001 I
b10000000000 +"
1!
1.
#865000
0!
0.
#870000
b100 |
b11 {
b1011 O
b1010 I
b10000000000 +"
1!
1.
#875000
0!
0.
#880000
b101 |
b100 {
b1100 O
b1011 I
b10000000000 +"
1!
1.
#885000
0!
0.
#890000
b110 |
b101 {
b1101 O
b1100 I
b10000000000 +"
1!
1.
#895000
0!
0.
#900000
b111 |
b110 {
b1110 O
b1101 I
b10000000000 +"
1!
1.
#905000
0!
0.
#910000
b0 |
b0 ("
b0 *"
0&"
b111 {
b1111 O
b1110 I
b10000000000 +"
1!
1.
#915000
0!
0.
#920000
1&"
b1111011 *"
b100000 ("
b1 |
0%"
b0 )"
b0 '"
b0 {
b10000 O
b1111 I
b10000000000 +"
1!
1.
#925000
0!
0.
#930000
b10 |
1%"
b1111011 )"
b100000 '"
b1 {
b0 O
b100000 T
b100000 n
1N
b11100 M
b11100 k
b10000 I
b10000000000 +"
1!
1.
#935000
0!
0.
#940000
b11 |
b111100 7
b111100 a
b100000 8
b100000 _
b11100 =
b11100 `
b11100 c
b11100 l
b11100 s
b10 {
16
b0 I
b10000000000 +"
1!
1.
#945000
0!
0.
#950000
b100 |
b11 {
b0 $
b0 P
b0 w
0y
1&"
b1111011 *"
b0 D
b0 ]
0+
b0 #
b0 Q
b0 x
b0 3
b0 [
b0 j
0@
0G
b0 o
b0 4
b0 i
b0 r
b0 q
b0 d
b0 V
b0 W
b0 L
b1 O
b1 /"
b11100 5"
0N
b11100 )
b11100 R
b11100 ,"
1'
b10000000000 +"
1!
1.
#955000
0!
0.
#960000
b101 |
b10 /"
b100 {
b11100 4"
b1 ."
b10 O
06
b1 I
b10000000000 +"
1!
1.
#965000
0!
0.
#970000
b11 /"
b110 |
b10 ."
b101 {
b11 O
0'
b10 I
b10000000000 +"
1!
1.
#975000
0!
0.
#980000
b111 |
b100 /"
b110 {
b11 ."
b100 O
b11 I
b10000000000 +"
1!
1.
#985000
0!
0.
#990000
b101 /"
b0 |
b0 ("
b0 *"
0&"
b100 ."
b111 {
b101 O
b100 I
b10000000000 +"
1!
1.
#995000
0!
0.
#1000000
b0 /"
b11000101000100001100011 1"
13"
0%"
b0 )"
b0 '"
b0 {
b101 ."
b110 O
b101 I
b10000000000 +"
1!
1.
#1005000
0!
0.
#1010000
b100000 9
b100000 v
b101100 7
b101100 a
b10000 :
b10000 b
b10000 g
b10000 h
b10000 u
b0 1"
03"
b10000 K
b10000 f
b0 ."
b11000101000100001100011 (
b11000101000100001100011 ;
b11000101000100001100011 -"
b11000101000100001100011 0"
1&
12"
b111 O
b110 I
b10000000000 +"
1!
1.
#1015000
0!
0.
#1020000
b0 (
b0 ;
b0 -"
b0 0"
0&
02"
b0 $
b0 P
b0 w
b110 F
b110 Y
b110 Z
b0 D
b0 ]
b111001000 #
b111001000 Q
b111001000 x
b111001000 3
b111001000 [
b111001000 j
b1 E
b1 X
b1 e
1C
b1111011 5
b1111011 \
b1111011 p
b101 o
b111001000 4
b111001000 i
b111001000 r
b110 q
b1100011 d
b1000 O
b11000101000100001100011 L
b111 I
b10000000000 +"
1!
1.
#1025000
b10000 S
b10000 m
0!
0.
#1030000
b1001 O
b1000 I
b10000000000 +"
1!
1.
#1035000
0!
0.
#1040000
b1010 O
b1001 I
b10000000000 +"
1!
1.
#1045000
0!
0.
#1050000
b1011 O
b1010 I
b10000000000 +"
1!
1.
#1055000
0!
0.
#1060000
b1100 O
b1011 I
b10000000000 +"
1!
1.
#1065000
0!
0.
#1070000
b1101 O
b1100 I
b10000000000 +"
1!
1.
#1075000
0!
0.
#1080000
b1110 O
b1101 I
b10000000000 +"
1!
1.
#1085000
0!
0.
#1090000
b1111 O
b1110 I
b10000000000 +"
1!
1.
#1095000
0!
0.
#1100000
b10000 O
b1111 I
b10000000000 +"
1!
1.
#1105000
0!
0.
#1110000
b0 O
b0 T
b0 n
1N
b100000 M
b100000 k
b10000 I
b10000000000 +"
1!
1.
#1115000
0!
0.
#1120000
b110000 7
b110000 a
b100100 8
b100100 _
b100000 =
b100000 `
b100000 c
b100000 l
b100000 s
16
b0 I
b10000000000 +"
1!
1.
#1125000
0!
0.
#1130000
12
b0 #
b0 Q
b0 x
b0 3
b0 [
b0 j
0C
b0 5
b0 \
b0 p
b0 o
b0 4
b0 i
b0 r
b0 q
b0 d
b0 L
b1 O
b1 /"
b100000 5"
0N
b100000 )
b100000 R
b100000 ,"
1'
b10000000000 +"
1!
1.
#1135000
b0 S
b0 m
0!
0.
#1140000
b10 /"
b100000 4"
b1 ."
b10 O
06
b1 I
b10000000000 +"
1!
1.
#1145000
0!
0.
#1150000
b11 /"
b10 ."
b11 O
0'
b10 I
b10000000000 +"
1!
1.
#1155000
0!
0.
#1160000
b100 /"
b11 ."
b100 O
b11 I
b10000000000 +"
1!
1.
#1165000
0!
0.
#1170000
b101 /"
b100 ."
b101 O
b100 I
b10000000000 +"
1!
1.
#1175000
0!
0.
#1180000
b0 /"
b10011001010011010000100011 1"
13"
b101 ."
b110 O
b101 I
b10000000000 +"
1!
1.
#1185000
0!
0.
#1190000
b1010000 9
b1010000 v
b1001000 7
b1001000 a
b101000 :
b101000 b
b101000 g
b101000 h
b101000 u
b0 1"
03"
b101000 K
b101000 f
b0 ."
b10011001010011010000100011 (
b10011001010011010000100011 ;
b10011001010011010000100011 -"
b10011001010011010000100011 0"
1&
12"
b111 O
b110 I
b10000000000 +"
1!
1.
#1195000
0!
0.
#1200000
b0 (
b0 ;
b0 -"
b0 0"
0&
02"
b1 |
1&"
b111001000 *"
b101000 ("
b101000 $
b101000 P
b101000 w
1y
b101000 D
b101000 ]
02
b10 F
b10 Y
b10 Z
1+
b111001000 #
b111001000 Q
b111001000 x
b101000 3
b101000 [
b101000 j
b0 E
b0 X
b0 e
1@
1G
b1010 o
b111001000 4
b111001000 i
b111001000 r
b110 q
b100011 d
b11 V
b1 W
b1000 O
b10011001010011010000100011 L
b111 I
b10000000000 +"
1!
1.
#1205000
b1000 S
b1000 m
0!
0.
#1210000
b10 |
1%"
b111001000 )"
b101000 '"
b1 {
b1001 O
b1000 I
b10000000000 +"
1!
1.
#1215000
0!
0.
#1220000
b11 |
b10 {
b1010 O
b1001 I
b10000000000 +"
1!
1.
#1225000
0!
0.
#1230000
b100 |
b11 {
b1011 O
b1010 I
b10000000000 +"
1!
1.
#1235000
0!
0.
#1240000
b101 |
b100 {
b1100 O
b1011 I
b10000000000 +"
1!
1.
#1245000
0!
0.
#1250000
b110 |
b101 {
b1101 O
b1100 I
b10000000000 +"
1!
1.
#1255000
0!
0.
#1260000
b111 |
b110 {
b1110 O
b1101 I
b10000000000 +"
1!
1.
#1265000
0!
0.
#1270000
b0 |
b0 ("
b0 *"
0&"
b111 {
b1111 O
b1110 I
b10000000000 +"
1!
1.
#1275000
0!
0.
#1280000
1&"
b111001000 *"
b101000 ("
b1 |
0%"
b0 )"
b0 '"
b0 {
b10000 O
b1111 I
b10000000000 +"
1!
1.
#1285000
0!
0.
#1290000
b10 |
1%"
b111001000 )"
b101000 '"
b1 {
b0 O
b101000 T
b101000 n
1N
b100100 M
b100100 k
b10000 I
b10000000000 +"
1!
1.
#1295000
0!
0.
#1300000
b11 |
b1001100 7
b1001100 a
b101000 8
b101000 _
b100100 =
b100100 `
b100100 c
b100100 l
b100100 s
b10 {
16
b0 I
b10000000000 +"
1!
1.
#1305000
0!
0.
#1310000
b100 |
b11 {
b0 $
b0 P
b0 w
0y
1&"
b111001000 *"
b0 D
b0 ]
0+
b0 #
b0 Q
b0 x
b0 3
b0 [
b0 j
0@
0G
b0 o
b0 4
b0 i
b0 r
b0 q
b0 d
b0 V
b0 W
b0 L
b1 O
b1 /"
b100100 5"
0N
b100100 )
b100100 R
b100100 ,"
1'
b10000000000 +"
1!
1.
#1315000
b0 S
b0 m
0!
0.
#1320000
b101 |
b10 /"
b100 {
b100100 4"
b1 ."
b10 O
06
b1 I
b10000000000 +"
1!
1.
#1325000
0!
0.
#1330000
b11 /"
b110 |
b10 ."
b101 {
b11 O
0'
b10 I
b10000000000 +"
1!
1.
#1335000
0!
0.
#1340000
b111 |
b100 /"
b110 {
b11 ."
b100 O
b11 I
b10000000000 +"
1!
1.
#1345000
0!
0.
#1350000
b101 /"
b0 |
b0 ("
b0 *"
0&"
b100 ."
b111 {
b101 O
b100 I
b10000000000 +"
1!
1.
#1355000
0!
0.
#1360000
b0 /"
b10011101010011100000100011 1"
13"
0%"
b0 )"
b0 '"
b0 {
b101 ."
b110 O
b101 I
b10000000000 +"
1!
1.
#1365000
0!
0.
#1370000
b1100000 9
b1100000 v
b1010100 7
b1010100 a
b110000 :
b110000 b
b110000 g
b110000 h
b110000 u
b0 1"
03"
b110000 K
b110000 f
b0 ."
b10011101010011100000100011 (
b10011101010011100000100011 ;
b10011101010011100000100011 -"
b10011101010011100000100011 0"
1&
12"
b111 O
b110 I
b10000000000 +"
1!
1.
#1375000
0!
0.
#1380000
b0 (
b0 ;
b0 -"
b0 0"
0&
02"
b1 |
1&"
b1111011 *"
b110000 ("
b110000 $
b110000 P
b110000 w
1y
b110000 D
b110000 ]
1+
b1111011 #
b1111011 Q
b1111011 x
b110000 3
b110000 [
b110000 j
1@
1G
b1010 o
b1111011 4
b1111011 i
b1111011 r
b111 q
b100011 d
b11 V
b1 W
b1000 O
b10011101010011100000100011 L
b111 I
b10000000000 +"
1!
1.
